…
    abia<- abia %>% 
      mutate(AD = ifelse(Dest=="AUS",'D','A'))

    abia1 <- subset(abia,ArrDelay!="NA")

    d1 = abia1 %>% 
      group_by(UniqueCarrier, AD, Month) %>%
      summarise(arrd_average=mean(ArrDelay))

    ## `summarise()` has grouped output by 'UniqueCarrier', 'AD'. You can override using the `.groups` argument.

    d1

    ## # A tibble: 350 x 4
    ## # Groups:   UniqueCarrier, AD [32]
    ##    UniqueCarrier AD    Month arrd_average
    ##    <chr>         <chr> <int>        <dbl>
    ##  1 9E            A         1       6.15  
    ##  2 9E            A         2       3.79  
    ##  3 9E            A         3      14.6   
    ##  4 9E            A         4       3.43  
    ##  5 9E            A         5      -4.72  
    ##  6 9E            A         6      -2.22  
    ##  7 9E            A         7      -3.86  
    ##  8 9E            A         8      -2.92  
    ##  9 9E            A         9      -0.0923
    ## 10 9E            A        10      -2.05  
    ## # … with 340 more rows
…
