…
###### From all of the above graphs, we cannot see the variable named total.sulfur.dioxide also corresponding to the wine qulity. However, let’s see the accurary with repect to quality.

    wine_c7<- cbind(clust7$cluster,wine)
    wine_c7 %>% group_by(clust7$cluster,quality) %>% summarise(num=n())

    ## `summarise()` has grouped output by 'clust7$cluster'. You can override using the `.groups` argument.

    ## # A tibble: 44 x 3
    ## # Groups:   clust7$cluster [7]
    ##    `clust7$cluster` quality   num
    ##               <int> <fct>   <int>
    ##  1                1 3           3
    ##  2                1 4          30
    ##  3                1 5         377
    ##  4                1 6         368
    ##  5                1 7          64
    ##  6                1 8          14
    ##  7                2 3           2
    ##  8                2 4          41
    ##  9                2 5         283
    ## 10                2 6         505
    ## # … with 34 more rows
…
